Pokemons
…
basicStats = cleanData %>% 
  dplyr::select(name,
                hp:speed,
                contains("type"))
basicStats

# A tibble: 721 x 9
        name    hp attack defense special_attack special_defense speed
       <chr> <int>  <int>   <int>          <int>           <int> <int>
1  Bulbasaur    45     49      49             65              65    45
2    Ivysaur    60     62      63             80              80    60
3   Venusaur    80     82      83            100             100    80
4 Charmander    39     52      43             60              50    65
5 Charmeleon    58     64      58             80              65    80
# ... with 716 more rows, and 2 more variables: type_1 <chr>, type_2 <chr>

group_by + summarise

groupType1 = cleanData %>% 
  group_by(type_1)
  
groupType1

# A tibble: 721 x 23
# Groups:   type_1 [18]
  number       name type_1 type_2 total    hp attack defense
   <int>      <chr>  <chr>  <chr> <int> <int>  <int>   <int>
1      1  Bulbasaur  Grass Poison   318    45     49      49
2      2    Ivysaur  Grass Poison   405    60     62      63
3      3   Venusaur  Grass Poison   525    80     82      83
4      4 Charmander   Fire   <NA>   309    39     52      43
5      5 Charmeleon   Fire   <NA>   405    58     64      58
# ... with 716 more rows, and 15 more variables: special_attack <int>,
#   special_defense <int>, speed <int>, generation <int>,
#   islegendary <lgl>, color <chr>, hasgender <lgl>, pr_male <dbl>,
#   egg_group_1 <chr>, egg_group_2 <chr>, hasmegaevolution <lgl>,
#   height <dbl>, weight <dbl>, catch_rate <int>, body_style <chr>

groupType1 %>% 
  dplyr::summarise(medianAttack = median(attack))

# A tibble: 18 x 2
    type_1 medianAttack
     <chr>        <dbl>
1      Bug         63.0
2     Dark         86.5
3   Dragon         97.5
4 Electric         61.5
5    Fairy         52.0
# ... with 13 more rows

select_if

intVarsOnly = cleanData %>% 
  select_if(.predicate = is.integer)

intVarsOnly

# A tibble: 721 x 10
  number total    hp attack defense special_attack special_defense speed
   <int> <int> <int>  <int>   <int>          <int>           <int> <int>
1      1   318    45     49      49             65              65    45
2      2   405    60     62      63             80              80    60
3      3   525    80     82      83            100             100    80
4      4   309    39     52      43             60              50    65
5      5   405    58     64      58             80              65    80
# ... with 716 more rows, and 2 more variables: generation <int>,
#   catch_rate <int>

numFunction = function(x){is.integer(x)|is.numeric(x)}

numVarsOnly = cleanData %>% 
  select_if(.predicate = numFunction) %>% 
  remove_missing()

numVarsOnly

# A tibble: 644 x 13
  number total    hp attack defense special_attack special_defense speed
   <int> <int> <int>  <int>   <int>          <int>           <int> <int>
1      1   318    45     49      49             65              65    45
2      2   405    60     62      63             80              80    60
3      3   525    80     82      83            100             100    80
4      4   309    39     52      43             60              50    65
5      5   405    58     64      58             80              65    80
# ... with 639 more rows, and 5 more variables: generation <int>,
#   pr_male <dbl>, height <dbl>, weight <dbl>, catch_rate <int>
…
# ggbiplot::ggbiplot

ggplot2: the best data visualisation package

ggplot only allows plotting using data.frame

pcaPlotdf = data.frame(numVarsOnly,
                       pcaObj$x[,1:2]) %>% 
  as.tibble

pcaPlotdf

# A tibble: 644 x 15
  number total    hp attack defense special_attack special_defense speed
   <int> <int> <int>  <int>   <int>          <int>           <int> <int>
1      1   318    45     49      49             65              65    45
2      2   405    60     62      63             80              80    60
3      3   525    80     82      83            100             100    80
4      4   309    39     52      43             60              50    65
5      5   405    58     64      58             80              65    80
# ... with 639 more rows, and 7 more variables: generation <int>,
#   pr_male <dbl>, height <dbl>, weight <dbl>, catch_rate <int>,
#   PC1 <dbl>, PC2 <dbl>
…
